[
  {
    "date": "29/04/19",
    "title": "Pantacor team shows Pantafleet  @ Dockercon19 in SF",
    "content": "",
    "content2": "",
    "link_text": "",
    "link_url": ""
  },
  {
    "date": "21/09/18",
    "title": "LimeSDR examples for Raspberry Pi now available!",
    "content": "Get started with your Software Defined Radio by trying out the example demos that Lime Microsystems and MyriadRF have put together for you. Easy access through PantacorHub means you can try different demos out without having to worry about complex instructions.",
    "content2": "Find our getting started guide at:",
    "link_text": "https://bit.ly/2QLDxGs",
    "link_url": "https://bit.ly/2QLDxGs"
  },
  {
    "date": "29/05/18",
    "title": "Pantacor adds BananaPi-R2 running Alpine Router to examples",
    "content": "Bananapi community has evolved quite a lot in recent years and with the BPI-R2 we found a very nice hackable IoT/Router HW Platform, so the Pantacor team decided to use this fine board to make a example router platform based on Alpine Linux. See announcement: https://bit.ly/2ssx9IY - #BPI #Alpine"
  },
  {
    "date": "26/02/18",
    "title": "Pantacor at MWC, Barcelona",
    "content": "Happy for Pantacor to be partnering with Lime Microsystems on Vodafone's OpenRAN project. Come see it at Vodafone's MWC18 stand (3D30) #MWC18 #Linux #IoT"
  },
  {
    "date": "26/10/17",
    "title": "Pantacor at OpenWRT Summit in Prague",
    "content": "Pantacor is joining the OpenWRT community in Prague. Looking forward to discuss the latest tech for OpenWRT/LEDE and have lots of fun presenting Pantacor Technology during our lightning talk 'Using Containers for Firmware Management on Low-Spec Devices'"
  },
  {
    "date": "25/10/17",
    "title": "Pantacor technology now up and open on gitlab",
    "content": "Pantacor strongly believes that any software platform needs to be fully open source. Following that principal we public all software as open source to ensure that what we build can also be what you build and more importantly what you need. Check out our project on https://gitlab.com/pantacor."
  },
  {
    "date": "25/10/17",
    "title": "PantacorHub now online",
    "content": "Happy to open doors to https://hub.pantacor.com as we go ahead with our public Alpha of our experimental hosted service running our our open source technology."
  }
]

